INDEX VERSION 1.131+D:\HCL-October\HCL-java\microservices\.metadata\.plugins\org.eclipse.jdt.core
1668872126.index
4020049922.index
2528170065.index
1404765356.index
3111362781.index
605693634.index
1007470904.index
720700018.index
3809050516.index
1925292322.index
1798836960.index
3709622719.index
2802197453.index
2606907390.index
3078288286.index
541649341.index
1922615558.index
2333123735.index
4195438142.index
1205237160.index
2080078057.index
3128134824.index
2038909687.index
1321975625.index
2888407967.index
3531079534.index
116753421.index
482300979.index
3897170466.index
221090066.index
907273980.index
3177357970.index
1321066190.index
3505155187.index
427690908.index
3789012368.index
691741501.index
1351896552.index
2024109960.index
599300170.index
1877492726.index
760316267.index
3431401404.index
640991909.index
3485911512.index
3925585203.index
1649046867.index
1625090679.index
360980985.index
578868455.index
3564155314.index
1357312145.index
379447856.index
1113169968.index
3958681081.index
2701370115.index
461137138.index
78847611.index
197867056.index
3275436428.index
2362694290.index
1223622208.index
1924340157.index
510769073.index
4066622328.index
267958838.index
923672843.index
2247791238.index
2323989690.index
3324406120.index
757556256.index
4189920142.index
3272284.index
3016867102.index
2102148356.index
1865797976.index
4224777802.index
2913300753.index
494371107.index
2110071036.index
3189856904.index
111899523.index
1400377196.index
3214968562.index
700283662.index
890498777.index
2952078036.index
3810122221.index
4000264521.index
4106106319.index
2907550992.index
4256544877.index
1135188934.index
591349553.index
503319584.index
606024214.index
2998707123.index
389980596.index
2616588116.index
715005152.index
2502046721.index
1962633538.index
2924202436.index
2112521986.index
1447020313.index
2521272.index
3709510867.index
2199882239.index
4157910401.index
3819483506.index
2527956493.index
1060019287.index
3952869438.index
1770603332.index
4007291005.index
3710911789.index
628393968.index
331075602.index
3491907934.index
3347120448.index
365400635.index
1292528703.index
2416578200.index
232844859.index
3500882163.index
1235628120.index
1028090152.index
1346308822.index
2186759234.index
1598723365.index
1953383678.index
3806740380.index
2865707182.index
1067658944.index
3179255588.index
3945343244.index
3994868991.index
2142713954.index
913511522.index
353392707.index
487835114.index
2027708665.index
3383933172.index
1013388728.index
1777582855.index
2149650976.index
852061827.index
2114483147.index
3171751742.index
4131713974.index
